{
  "project_info": {
    "project_number": "440163403591",
    "project_id": "my-firebase-project-4f05f",
    "storage_bucket": "my-firebase-project-4f05f.appspot.com"
  },
  "client": [
    {
      "client_info": {
        "mobilesdk_app_id": "1:440163403591:android:d9ddbe639fdd58e10cee62",
        "android_client_info": {
          "package_name": "com.teacherha.myfirebasetest"
        }
      },
      "oauth_client": [],
      "api_key": [
        {
          "current_key": "AIzaSyAeIf7gHYmF6TLcxwVbv5_yrXsA_UegC1w"
        }
      ],
      "services": {
        "appinvite_service": {
          "other_platform_oauth_client": []
        }
      }
    }
  ],
  "configuration_version": "1"
}