%YAML 1.1
%TAG !u! tag:unity3d.com,2011:
--- !u!1045 &1
EditorBuildSettings:
  m_ObjectHideFlags: 0
  serializedVersion: 2
  m_Scenes:
  - enabled: 1
    path: Assets/Classes/Profiling/profiling.unity
    guid: 545a07cc8a0532a4c91db72f92b7c526
  m_configObjects: {}
